\relax 
\providecommand\hyper@newdestlabel[2]{}
\providecommand\HyperFirstAtBeginDocument{\AtBeginDocument}
\HyperFirstAtBeginDocument{\ifx\hyper@anchor\@undefined
\global\let\oldcontentsline\contentsline
\gdef\contentsline#1#2#3#4{\oldcontentsline{#1}{#2}{#3}}
\global\let\oldnewlabel\newlabel
\gdef\newlabel#1#2{\newlabelxx{#1}#2}
\gdef\newlabelxx#1#2#3#4#5#6{\oldnewlabel{#1}{{#2}{#3}}}
\AtEndDocument{\ifx\hyper@anchor\@undefined
\let\contentsline\oldcontentsline
\let\newlabel\oldnewlabel
\fi}
\fi}
\global\let\hyper@last\relax 
\gdef\HyperFirstAtBeginDocument#1{#1}
\providecommand\HyField@AuxAddToFields[1]{}
\providecommand\HyField@AuxAddToCoFields[2]{}
\bibstyle{biblatex}
\bibdata{jetTaggingSession-blx,bibliography}
\citation{biblatex-control}
\abx@aux@refcontext{none/global//global/global}
\@writefile{toc}{\boolfalse {citerequest}\boolfalse {citetracker}\boolfalse {pagetracker}\boolfalse {backtracker}\relax }
\@writefile{lof}{\boolfalse {citerequest}\boolfalse {citetracker}\boolfalse {pagetracker}\boolfalse {backtracker}\relax }
\@writefile{lot}{\boolfalse {citerequest}\boolfalse {citetracker}\boolfalse {pagetracker}\boolfalse {backtracker}\relax }
\pgfsyspdfmark {pgfid1}{1864679}{8950468}
\@writefile{nav}{\defcounter {refsection}{0}\relax }\@writefile{nav}{\headcommand {\slideentry {0}{0}{1}{1/1}{}{0}}}
\@writefile{nav}{\defcounter {refsection}{0}\relax }\@writefile{nav}{\headcommand {\beamer@framepages {1}{1}}}
\pgfsyspdfmark {pgfid2}{1864679}{16503029}
\@writefile{nav}{\defcounter {refsection}{0}\relax }\@writefile{nav}{\headcommand {\slideentry {0}{0}{2}{2/2}{}{0}}}
\@writefile{nav}{\defcounter {refsection}{0}\relax }\@writefile{nav}{\headcommand {\beamer@framepages {2}{2}}}
\pgfsyspdfmark {pgfid3}{1864679}{16503029}
\@writefile{nav}{\defcounter {refsection}{0}\relax }\@writefile{nav}{\headcommand {\slideentry {0}{0}{3}{3/3}{}{0}}}
\@writefile{nav}{\defcounter {refsection}{0}\relax }\@writefile{nav}{\headcommand {\beamer@framepages {3}{3}}}
\pgfsyspdfmark {pgfid4}{0}{17900937}
\@writefile{nav}{\defcounter {refsection}{0}\relax }\@writefile{nav}{\headcommand {\slideentry {0}{0}{4}{4/4}{}{0}}}
\@writefile{nav}{\defcounter {refsection}{0}\relax }\@writefile{nav}{\headcommand {\beamer@framepages {4}{4}}}
\pgfsyspdfmark {pgfid6}{1744037}{9043035}
\pgfsyspdfmark {pgfid5}{1864679}{16503029}
\@writefile{nav}{\defcounter {refsection}{0}\relax }\@writefile{nav}{\headcommand {\slideentry {0}{0}{5}{5/5}{}{0}}}
\@writefile{nav}{\defcounter {refsection}{0}\relax }\@writefile{nav}{\headcommand {\beamer@framepages {5}{5}}}
\pgfsyspdfmark {pgfid8}{13677971}{7333330}
\pgfsyspdfmark {pgfid9}{998143}{8540024}
\pgfsyspdfmark {pgfid10}{2862823}{5183595}
\pgfsyspdfmark {pgfid11}{4354573}{242191}
\pgfsyspdfmark {pgfid12}{13677971}{7333330}
\pgfsyspdfmark {pgfid13}{12325415}{801615}
\pgfsyspdfmark {pgfid7}{1864679}{16503029}
\@writefile{nav}{\defcounter {refsection}{0}\relax }\@writefile{nav}{\headcommand {\slideentry {0}{0}{6}{6/6}{}{0}}}
\@writefile{nav}{\defcounter {refsection}{0}\relax }\@writefile{nav}{\headcommand {\beamer@framepages {6}{6}}}
\pgfsyspdfmark {pgfid14}{1864679}{16503029}
\@writefile{nav}{\defcounter {refsection}{0}\relax }\@writefile{nav}{\headcommand {\slideentry {0}{0}{7}{7/7}{}{0}}}
\@writefile{nav}{\defcounter {refsection}{0}\relax }\@writefile{nav}{\headcommand {\beamer@framepages {7}{7}}}
\pgfsyspdfmark {pgfid16}{16111987}{6281238}
\pgfsyspdfmark {pgfid15}{1864679}{16503029}
\@writefile{nav}{\defcounter {refsection}{0}\relax }\@writefile{nav}{\headcommand {\slideentry {0}{0}{8}{8/8}{}{0}}}
\@writefile{nav}{\defcounter {refsection}{0}\relax }\@writefile{nav}{\headcommand {\beamer@framepages {8}{8}}}
\pgfsyspdfmark {pgfid17}{1864679}{16503029}
\@writefile{nav}{\defcounter {refsection}{0}\relax }\@writefile{nav}{\headcommand {\slideentry {0}{0}{9}{9/9}{}{0}}}
\@writefile{nav}{\defcounter {refsection}{0}\relax }\@writefile{nav}{\headcommand {\beamer@framepages {9}{9}}}
\pgfsyspdfmark {pgfid18}{1864679}{16503029}
\@writefile{nav}{\defcounter {refsection}{0}\relax }\@writefile{nav}{\headcommand {\slideentry {0}{0}{10}{10/10}{}{0}}}
\@writefile{nav}{\defcounter {refsection}{0}\relax }\@writefile{nav}{\headcommand {\beamer@framepages {10}{10}}}
\pgfsyspdfmark {pgfid19}{0}{17900937}
\@writefile{nav}{\defcounter {refsection}{0}\relax }\@writefile{nav}{\headcommand {\slideentry {0}{0}{11}{11/11}{}{0}}}
\@writefile{nav}{\defcounter {refsection}{0}\relax }\@writefile{nav}{\headcommand {\beamer@framepages {11}{11}}}
\pgfsyspdfmark {pgfid21}{20511469}{16130099}
\pgfsyspdfmark {pgfid20}{1864679}{16503029}
\@writefile{nav}{\defcounter {refsection}{0}\relax }\@writefile{nav}{\headcommand {\slideentry {0}{0}{12}{12/12}{}{0}}}
\@writefile{nav}{\defcounter {refsection}{0}\relax }\@writefile{nav}{\headcommand {\beamer@framepages {12}{12}}}
\pgfsyspdfmark {pgfid23}{20325004}{9044313}
\pgfsyspdfmark {pgfid24}{20418229}{4382616}
\pgfsyspdfmark {pgfid25}{2797003}{653258}
\pgfsyspdfmark {pgfid22}{1864679}{16503029}
\@writefile{nav}{\defcounter {refsection}{0}\relax }\@writefile{nav}{\headcommand {\slideentry {0}{0}{13}{13/13}{}{0}}}
\@writefile{nav}{\defcounter {refsection}{0}\relax }\@writefile{nav}{\headcommand {\beamer@framepages {13}{13}}}
\pgfsyspdfmark {pgfid27}{4475232}{1958528}
\pgfsyspdfmark {pgfid28}{15849771}{1958528}
\pgfsyspdfmark {pgfid29}{15849771}{1958528}
\pgfsyspdfmark {pgfid30}{6992532}{1958528}
\pgfsyspdfmark {pgfid26}{1864679}{16503029}
\@writefile{nav}{\defcounter {refsection}{0}\relax }\@writefile{nav}{\headcommand {\slideentry {0}{0}{14}{14/14}{}{0}}}
\@writefile{nav}{\defcounter {refsection}{0}\relax }\@writefile{nav}{\headcommand {\beamer@framepages {14}{14}}}
\pgfsyspdfmark {pgfid32}{1184628}{11968918}
\pgfsyspdfmark {pgfid31}{1864679}{16503029}
\@writefile{nav}{\defcounter {refsection}{0}\relax }\@writefile{nav}{\headcommand {\slideentry {0}{0}{15}{15/15}{}{0}}}
\@writefile{nav}{\defcounter {refsection}{0}\relax }\@writefile{nav}{\headcommand {\beamer@framepages {15}{15}}}
\pgfsyspdfmark {pgfid34}{18317211}{11083151}
\pgfsyspdfmark {pgfid35}{14856130}{9921946}
\pgfsyspdfmark {pgfid36}{7162181}{7947405}
\pgfsyspdfmark {pgfid37}{1512464}{7514218}
\pgfsyspdfmark {pgfid38}{2498957}{598304}
\pgfsyspdfmark {pgfid39}{13332463}{652635}
\pgfsyspdfmark {pgfid33}{1864679}{16503029}
\@writefile{nav}{\defcounter {refsection}{0}\relax }\@writefile{nav}{\headcommand {\slideentry {0}{0}{16}{16/16}{}{0}}}
\@writefile{nav}{\defcounter {refsection}{0}\relax }\@writefile{nav}{\headcommand {\beamer@framepages {16}{16}}}
\pgfsyspdfmark {pgfid41}{17625439}{11823486}
\pgfsyspdfmark {pgfid42}{17608645}{5755052}
\pgfsyspdfmark {pgfid43}{17363996}{274931}
\pgfsyspdfmark {pgfid40}{1864679}{16503029}
\@writefile{nav}{\defcounter {refsection}{0}\relax }\@writefile{nav}{\headcommand {\slideentry {0}{0}{17}{17/17}{}{0}}}
\@writefile{nav}{\defcounter {refsection}{0}\relax }\@writefile{nav}{\headcommand {\beamer@framepages {17}{17}}}
\pgfsyspdfmark {pgfid44}{1864679}{16503029}
\@writefile{nav}{\defcounter {refsection}{0}\relax }\@writefile{nav}{\headcommand {\slideentry {0}{0}{18}{18/18}{}{0}}}
\@writefile{nav}{\defcounter {refsection}{0}\relax }\@writefile{nav}{\headcommand {\beamer@framepages {18}{18}}}
\pgfsyspdfmark {pgfid45}{0}{17900937}
\@writefile{nav}{\defcounter {refsection}{0}\relax }\@writefile{nav}{\headcommand {\slideentry {0}{0}{19}{19/19}{}{0}}}
\@writefile{nav}{\defcounter {refsection}{0}\relax }\@writefile{nav}{\headcommand {\beamer@framepages {19}{19}}}
\pgfsyspdfmark {pgfid47}{1623380}{8720034}
\pgfsyspdfmark {pgfid48}{5687829}{436525}
\pgfsyspdfmark {pgfid47}{21016044}{1261318}
\pgfsyspdfmark {pgfid48}{25080493}{-7022191}
\pgfsyspdfmark {pgfid49}{21257343}{9044313}
\pgfsyspdfmark {pgfid46}{1864679}{16503029}
\@writefile{nav}{\defcounter {refsection}{0}\relax }\@writefile{nav}{\headcommand {\slideentry {0}{0}{20}{20/20}{}{0}}}
\@writefile{nav}{\defcounter {refsection}{0}\relax }\@writefile{nav}{\headcommand {\beamer@framepages {20}{20}}}
\pgfsyspdfmark {pgfid51}{13009956}{6707382}
\pgfsyspdfmark {pgfid51}{31004095}{4842703}
\pgfsyspdfmark {pgfid52}{19858818}{14638350}
\pgfsyspdfmark {pgfid50}{1864679}{16503029}
\@writefile{nav}{\defcounter {refsection}{0}\relax }\@writefile{nav}{\headcommand {\slideentry {0}{0}{21}{21/21}{}{0}}}
\@writefile{nav}{\defcounter {refsection}{0}\relax }\@writefile{nav}{\headcommand {\beamer@framepages {21}{21}}}
\pgfsyspdfmark {pgfid54}{12882029}{6715576}
\pgfsyspdfmark {pgfid53}{1864679}{16503029}
\@writefile{nav}{\defcounter {refsection}{0}\relax }\@writefile{nav}{\headcommand {\slideentry {0}{0}{22}{22/22}{}{0}}}
\@writefile{nav}{\defcounter {refsection}{0}\relax }\@writefile{nav}{\headcommand {\beamer@framepages {22}{22}}}
\pgfsyspdfmark {pgfid56}{8691988}{4520877}
\pgfsyspdfmark {pgfid57}{2701406}{3833050}
\pgfsyspdfmark {pgfid58}{2937335}{3264778}
\pgfsyspdfmark {pgfid59}{13637276}{10306347}
\pgfsyspdfmark {pgfid60}{13475112}{8998635}
\pgfsyspdfmark {pgfid61}{27170835}{10714058}
\pgfsyspdfmark {pgfid56}{7619804}{-2564908}
\pgfsyspdfmark {pgfid57}{1629222}{-3252735}
\pgfsyspdfmark {pgfid58}{1865151}{-3821007}
\pgfsyspdfmark {pgfid59}{12565092}{3220562}
\pgfsyspdfmark {pgfid60}{12402928}{1912850}
\pgfsyspdfmark {pgfid61}{26098651}{3628273}
\pgfsyspdfmark {pgfid62}{792495}{9417244}
\pgfsyspdfmark {pgfid55}{1864679}{16503029}
\pgfsyspdfmark {pgfid64}{8691988}{4520877}
\pgfsyspdfmark {pgfid65}{2701406}{3833050}
\pgfsyspdfmark {pgfid66}{2937335}{3264778}
\pgfsyspdfmark {pgfid67}{13637276}{10306347}
\pgfsyspdfmark {pgfid68}{13475112}{8998635}
\pgfsyspdfmark {pgfid69}{27170835}{10714058}
\pgfsyspdfmark {pgfid70}{5341298}{4536472}
\pgfsyspdfmark {pgfid71}{15457378}{12948226}
\pgfsyspdfmark {pgfid72}{18037023}{12977419}
\pgfsyspdfmark {pgfid64}{7619804}{-2564908}
\pgfsyspdfmark {pgfid65}{1629222}{-3252735}
\pgfsyspdfmark {pgfid66}{1865151}{-3821007}
\pgfsyspdfmark {pgfid67}{12565092}{3220562}
\pgfsyspdfmark {pgfid68}{12402928}{1912850}
\pgfsyspdfmark {pgfid69}{26098651}{3628273}
\pgfsyspdfmark {pgfid70}{4269114}{-2549313}
\pgfsyspdfmark {pgfid71}{14385194}{5862441}
\pgfsyspdfmark {pgfid72}{16964839}{5891634}
\pgfsyspdfmark {pgfid73}{792495}{9417244}
\pgfsyspdfmark {pgfid63}{1864679}{16503029}
\@writefile{nav}{\defcounter {refsection}{0}\relax }\@writefile{nav}{\headcommand {\slideentry {0}{0}{23}{23/24}{}{0}}}
\@writefile{nav}{\defcounter {refsection}{0}\relax }\@writefile{nav}{\headcommand {\beamer@framepages {23}{24}}}
\pgfsyspdfmark {pgfid74}{0}{17900937}
\@writefile{nav}{\defcounter {refsection}{0}\relax }\@writefile{nav}{\headcommand {\slideentry {0}{0}{24}{25/25}{}{0}}}
\@writefile{nav}{\defcounter {refsection}{0}\relax }\@writefile{nav}{\headcommand {\beamer@framepages {25}{25}}}
\pgfsyspdfmark {pgfid76}{17757931}{14193922}
\pgfsyspdfmark {pgfid75}{1864679}{16503029}
\@writefile{nav}{\defcounter {refsection}{0}\relax }\@writefile{nav}{\headcommand {\slideentry {0}{0}{25}{26/26}{}{0}}}
\@writefile{nav}{\defcounter {refsection}{0}\relax }\@writefile{nav}{\headcommand {\beamer@framepages {26}{26}}}
\pgfsyspdfmark {pgfid77}{1864679}{16503029}
\@writefile{nav}{\defcounter {refsection}{0}\relax }\@writefile{nav}{\headcommand {\slideentry {0}{0}{26}{27/27}{}{0}}}
\@writefile{nav}{\defcounter {refsection}{0}\relax }\@writefile{nav}{\headcommand {\beamer@framepages {27}{27}}}
\pgfsyspdfmark {pgfid78}{1864679}{16503029}
\@writefile{nav}{\defcounter {refsection}{0}\relax }\@writefile{nav}{\headcommand {\slideentry {0}{0}{27}{28/28}{}{0}}}
\@writefile{nav}{\defcounter {refsection}{0}\relax }\@writefile{nav}{\headcommand {\beamer@framepages {28}{28}}}
\pgfsyspdfmark {pgfid79}{0}{17900937}
\@writefile{nav}{\defcounter {refsection}{0}\relax }\@writefile{nav}{\headcommand {\slideentry {0}{0}{28}{29/29}{}{0}}}
\@writefile{nav}{\defcounter {refsection}{0}\relax }\@writefile{nav}{\headcommand {\beamer@framepages {29}{29}}}
\pgfsyspdfmark {pgfid80}{1864679}{16503029}
\@writefile{nav}{\defcounter {refsection}{0}\relax }\@writefile{nav}{\headcommand {\slideentry {0}{0}{29}{30/30}{}{0}}}
\@writefile{nav}{\defcounter {refsection}{0}\relax }\@writefile{nav}{\headcommand {\beamer@framepages {30}{30}}}
\pgfsyspdfmark {pgfid82}{13187002}{1957920}
\pgfsyspdfmark {pgfid81}{1864679}{16503029}
\@writefile{nav}{\defcounter {refsection}{0}\relax }\@writefile{nav}{\headcommand {\slideentry {0}{0}{30}{31/31}{}{0}}}
\@writefile{nav}{\defcounter {refsection}{0}\relax }\@writefile{nav}{\headcommand {\beamer@framepages {31}{31}}}
\pgfsyspdfmark {pgfid84}{21443807}{12960151}
\pgfsyspdfmark {pgfid83}{1864679}{16503029}
\@writefile{nav}{\defcounter {refsection}{0}\relax }\@writefile{nav}{\headcommand {\slideentry {0}{0}{31}{32/32}{}{0}}}
\@writefile{nav}{\defcounter {refsection}{0}\relax }\@writefile{nav}{\headcommand {\beamer@framepages {32}{32}}}
\pgfsyspdfmark {pgfid86}{19206199}{15477450}
\pgfsyspdfmark {pgfid85}{1864679}{16503029}
\@writefile{nav}{\defcounter {refsection}{0}\relax }\@writefile{nav}{\headcommand {\slideentry {0}{0}{32}{33/33}{}{0}}}
\@writefile{nav}{\defcounter {refsection}{0}\relax }\@writefile{nav}{\headcommand {\beamer@framepages {33}{33}}}
\pgfsyspdfmark {pgfid87}{1864679}{16503029}
\@writefile{nav}{\defcounter {refsection}{0}\relax }\@writefile{nav}{\headcommand {\slideentry {0}{0}{33}{34/34}{}{0}}}
\@writefile{nav}{\defcounter {refsection}{0}\relax }\@writefile{nav}{\headcommand {\beamer@framepages {34}{34}}}
\pgfsyspdfmark {pgfid89}{19952058}{12960151}
\pgfsyspdfmark {pgfid88}{1864679}{16503029}
\@writefile{nav}{\defcounter {refsection}{0}\relax }\@writefile{nav}{\headcommand {\slideentry {0}{0}{34}{35/35}{}{0}}}
\@writefile{nav}{\defcounter {refsection}{0}\relax }\@writefile{nav}{\headcommand {\beamer@framepages {35}{35}}}
\pgfsyspdfmark {pgfid91}{19952058}{10536062}
\pgfsyspdfmark {pgfid90}{1864679}{16503029}
\@writefile{nav}{\defcounter {refsection}{0}\relax }\@writefile{nav}{\headcommand {\slideentry {0}{0}{35}{36/36}{}{0}}}
\@writefile{nav}{\defcounter {refsection}{0}\relax }\@writefile{nav}{\headcommand {\beamer@framepages {36}{36}}}
\pgfsyspdfmark {pgfid92}{0}{17900937}
\@writefile{nav}{\defcounter {refsection}{0}\relax }\@writefile{nav}{\headcommand {\slideentry {0}{0}{36}{37/37}{}{0}}}
\@writefile{nav}{\defcounter {refsection}{0}\relax }\@writefile{nav}{\headcommand {\beamer@framepages {37}{37}}}
\pgfsyspdfmark {pgfid94}{14263493}{15423101}
\pgfsyspdfmark {pgfid95}{15725597}{14574170}
\pgfsyspdfmark {pgfid96}{16716586}{13502848}
\pgfsyspdfmark {pgfid93}{1864679}{16503029}
\@writefile{nav}{\defcounter {refsection}{0}\relax }\@writefile{nav}{\headcommand {\slideentry {0}{0}{37}{38/38}{}{0}}}
\@writefile{nav}{\defcounter {refsection}{0}\relax }\@writefile{nav}{\headcommand {\beamer@framepages {38}{38}}}
\pgfsyspdfmark {pgfid97}{1864679}{16503029}
\@writefile{nav}{\defcounter {refsection}{0}\relax }\@writefile{nav}{\headcommand {\slideentry {0}{0}{38}{39/39}{}{0}}}
\@writefile{nav}{\defcounter {refsection}{0}\relax }\@writefile{nav}{\headcommand {\beamer@framepages {39}{39}}}
\pgfsyspdfmark {pgfid98}{0}{17900937}
\@writefile{nav}{\defcounter {refsection}{0}\relax }\@writefile{nav}{\headcommand {\slideentry {0}{0}{39}{40/40}{}{0}}}
\@writefile{nav}{\defcounter {refsection}{0}\relax }\@writefile{nav}{\headcommand {\beamer@framepages {40}{40}}}
\pgfsyspdfmark {pgfid100}{1930488}{10423431}
\pgfsyspdfmark {pgfid101}{1930488}{833625}
\pgfsyspdfmark {pgfid99}{1864679}{16503029}
\@writefile{nav}{\defcounter {refsection}{0}\relax }\@writefile{nav}{\headcommand {\slideentry {0}{0}{40}{41/41}{}{0}}}
\@writefile{nav}{\defcounter {refsection}{0}\relax }\@writefile{nav}{\headcommand {\beamer@framepages {41}{41}}}
\pgfsyspdfmark {pgfid102}{1864679}{16503029}
\@writefile{nav}{\defcounter {refsection}{0}\relax }\@writefile{nav}{\headcommand {\slideentry {0}{0}{41}{42/42}{}{0}}}
\@writefile{nav}{\defcounter {refsection}{0}\relax }\@writefile{nav}{\headcommand {\beamer@framepages {42}{42}}}
\pgfsyspdfmark {pgfid104}{20418228}{15570690}
\pgfsyspdfmark {pgfid103}{1864679}{16503029}
\@writefile{nav}{\defcounter {refsection}{0}\relax }\@writefile{nav}{\headcommand {\slideentry {0}{0}{42}{43/43}{}{0}}}
\@writefile{nav}{\defcounter {refsection}{0}\relax }\@writefile{nav}{\headcommand {\beamer@framepages {43}{43}}}
\pgfsyspdfmark {pgfid105}{1864679}{16503029}
\@writefile{nav}{\defcounter {refsection}{0}\relax }\@writefile{nav}{\headcommand {\slideentry {0}{0}{43}{44/44}{}{0}}}
\@writefile{nav}{\defcounter {refsection}{0}\relax }\@writefile{nav}{\headcommand {\beamer@framepages {44}{44}}}
\pgfsyspdfmark {pgfid107}{13425683}{6806704}
\pgfsyspdfmark {pgfid106}{1864679}{16503029}
\@writefile{nav}{\defcounter {refsection}{0}\relax }\@writefile{nav}{\headcommand {\slideentry {0}{0}{44}{45/45}{}{0}}}
\@writefile{nav}{\defcounter {refsection}{0}\relax }\@writefile{nav}{\headcommand {\beamer@framepages {45}{45}}}
\pgfsyspdfmark {pgfid109}{21443808}{10349583}
\pgfsyspdfmark {pgfid108}{1864679}{16503029}
\@writefile{nav}{\defcounter {refsection}{0}\relax }\@writefile{nav}{\headcommand {\slideentry {0}{0}{45}{46/46}{}{0}}}
\@writefile{nav}{\defcounter {refsection}{0}\relax }\@writefile{nav}{\headcommand {\beamer@framepages {46}{46}}}
\pgfsyspdfmark {pgfid110}{0}{17900937}
\@writefile{nav}{\defcounter {refsection}{0}\relax }\@writefile{nav}{\headcommand {\slideentry {0}{0}{46}{47/47}{}{0}}}
\@writefile{nav}{\defcounter {refsection}{0}\relax }\@writefile{nav}{\headcommand {\beamer@framepages {47}{47}}}
\pgfsyspdfmark {pgfid111}{1864679}{16503029}
\@writefile{nav}{\defcounter {refsection}{0}\relax }\@writefile{nav}{\headcommand {\slideentry {0}{0}{47}{48/48}{}{0}}}
\@writefile{nav}{\defcounter {refsection}{0}\relax }\@writefile{nav}{\headcommand {\beamer@framepages {48}{48}}}
\pgfsyspdfmark {pgfid112}{1864679}{16503029}
\@writefile{nav}{\defcounter {refsection}{0}\relax }\@writefile{nav}{\headcommand {\slideentry {0}{0}{48}{49/49}{}{0}}}
\@writefile{nav}{\defcounter {refsection}{0}\relax }\@writefile{nav}{\headcommand {\beamer@framepages {49}{49}}}
\pgfsyspdfmark {pgfid114}{18646788}{11748092}
\pgfsyspdfmark {pgfid115}{21443808}{8298453}
\pgfsyspdfmark {pgfid113}{1864679}{16503029}
\@writefile{nav}{\defcounter {refsection}{0}\relax }\@writefile{nav}{\headcommand {\slideentry {0}{0}{49}{50/50}{}{0}}}
\@writefile{nav}{\defcounter {refsection}{0}\relax }\@writefile{nav}{\headcommand {\beamer@framepages {50}{50}}}
\pgfsyspdfmark {pgfid116}{0}{17900937}
\@writefile{nav}{\defcounter {refsection}{0}\relax }\@writefile{nav}{\headcommand {\slideentry {0}{0}{50}{51/51}{}{0}}}
\@writefile{nav}{\defcounter {refsection}{0}\relax }\@writefile{nav}{\headcommand {\beamer@framepages {51}{51}}}
\pgfsyspdfmark {pgfid117}{1864679}{16503029}
\@writefile{nav}{\defcounter {refsection}{0}\relax }\@writefile{nav}{\headcommand {\slideentry {0}{0}{51}{52/52}{}{0}}}
\@writefile{nav}{\defcounter {refsection}{0}\relax }\@writefile{nav}{\headcommand {\beamer@framepages {52}{52}}}
\pgfsyspdfmark {pgfid119}{17814108}{13059096}
\pgfsyspdfmark {pgfid118}{1864679}{16503029}
\@writefile{nav}{\defcounter {refsection}{0}\relax }\@writefile{nav}{\headcommand {\slideentry {0}{0}{52}{53/53}{}{0}}}
\@writefile{nav}{\defcounter {refsection}{0}\relax }\@writefile{nav}{\headcommand {\beamer@framepages {53}{53}}}
\pgfsyspdfmark {pgfid121}{17814108}{13059096}
\pgfsyspdfmark {pgfid120}{1864679}{16503029}
\@writefile{nav}{\defcounter {refsection}{0}\relax }\@writefile{nav}{\headcommand {\slideentry {0}{0}{53}{54/54}{}{0}}}
\@writefile{nav}{\defcounter {refsection}{0}\relax }\@writefile{nav}{\headcommand {\beamer@framepages {54}{54}}}
\pgfsyspdfmark {pgfid122}{0}{17900937}
\@writefile{nav}{\defcounter {refsection}{0}\relax }\@writefile{nav}{\headcommand {\slideentry {0}{0}{54}{55/55}{}{0}}}
\@writefile{nav}{\defcounter {refsection}{0}\relax }\@writefile{nav}{\headcommand {\beamer@framepages {55}{55}}}
\pgfsyspdfmark {pgfid123}{1864679}{16503029}
\@writefile{nav}{\defcounter {refsection}{0}\relax }\@writefile{nav}{\headcommand {\slideentry {0}{0}{55}{56/56}{}{0}}}
\@writefile{nav}{\defcounter {refsection}{0}\relax }\@writefile{nav}{\headcommand {\beamer@framepages {56}{56}}}
\pgfsyspdfmark {pgfid125}{16409180}{10908992}
\pgfsyspdfmark {pgfid124}{1864679}{16503029}
\@writefile{nav}{\defcounter {refsection}{0}\relax }\@writefile{nav}{\headcommand {\slideentry {0}{0}{56}{57/57}{}{0}}}
\@writefile{nav}{\defcounter {refsection}{0}\relax }\@writefile{nav}{\headcommand {\beamer@framepages {57}{57}}}
\pgfsyspdfmark {pgfid126}{1864679}{16503029}
\@writefile{nav}{\defcounter {refsection}{0}\relax }\@writefile{nav}{\headcommand {\slideentry {0}{0}{57}{58/58}{}{0}}}
\@writefile{nav}{\defcounter {refsection}{0}\relax }\@writefile{nav}{\headcommand {\beamer@framepages {58}{58}}}
\pgfsyspdfmark {pgfid127}{1864679}{16503029}
\@writefile{nav}{\defcounter {refsection}{0}\relax }\@writefile{nav}{\headcommand {\slideentry {0}{0}{58}{59/59}{}{0}}}
\@writefile{nav}{\defcounter {refsection}{0}\relax }\@writefile{nav}{\headcommand {\beamer@framepages {59}{59}}}
\pgfsyspdfmark {pgfid129}{13574470}{10583061}
\pgfsyspdfmark {pgfid130}{11449959}{6309235}
\pgfsyspdfmark {pgfid128}{1864679}{16503029}
\@writefile{nav}{\defcounter {refsection}{0}\relax }\@writefile{nav}{\headcommand {\slideentry {0}{0}{59}{60/60}{}{0}}}
\@writefile{nav}{\defcounter {refsection}{0}\relax }\@writefile{nav}{\headcommand {\beamer@framepages {60}{60}}}
\pgfsyspdfmark {pgfid131}{1864679}{16503029}
\@writefile{nav}{\defcounter {refsection}{0}\relax }\@writefile{nav}{\headcommand {\slideentry {0}{0}{60}{61/61}{}{0}}}
\@writefile{nav}{\defcounter {refsection}{0}\relax }\@writefile{nav}{\headcommand {\beamer@framepages {61}{61}}}
\pgfsyspdfmark {pgfid133}{1744037}{8287410}
\pgfsyspdfmark {pgfid134}{16800593}{13838990}
\pgfsyspdfmark {pgfid132}{1864679}{16503029}
\@writefile{nav}{\defcounter {refsection}{0}\relax }\@writefile{nav}{\headcommand {\slideentry {0}{0}{61}{62/62}{}{0}}}
\@writefile{nav}{\defcounter {refsection}{0}\relax }\@writefile{nav}{\headcommand {\beamer@framepages {62}{62}}}
\pgfsyspdfmark {pgfid136}{4475234}{5127883}
\pgfsyspdfmark {pgfid135}{1864679}{16503029}
\@writefile{nav}{\defcounter {refsection}{0}\relax }\@writefile{nav}{\headcommand {\slideentry {0}{0}{62}{63/63}{}{0}}}
\@writefile{nav}{\defcounter {refsection}{0}\relax }\@writefile{nav}{\headcommand {\beamer@framepages {63}{63}}}
\pgfsyspdfmark {pgfid137}{1864679}{16503029}
\@writefile{nav}{\defcounter {refsection}{0}\relax }\@writefile{nav}{\headcommand {\slideentry {0}{0}{63}{64/64}{}{0}}}
\@writefile{nav}{\defcounter {refsection}{0}\relax }\@writefile{nav}{\headcommand {\beamer@framepages {64}{64}}}
\pgfsyspdfmark {pgfid138}{1864679}{16503029}
\@writefile{nav}{\defcounter {refsection}{0}\relax }\@writefile{nav}{\headcommand {\slideentry {0}{0}{64}{65/65}{}{0}}}
\@writefile{nav}{\defcounter {refsection}{0}\relax }\@writefile{nav}{\headcommand {\beamer@framepages {65}{65}}}
\pgfsyspdfmark {pgfid139}{1864679}{16503029}
\@writefile{nav}{\defcounter {refsection}{0}\relax }\@writefile{nav}{\headcommand {\slideentry {0}{0}{65}{66/66}{}{0}}}
\@writefile{nav}{\defcounter {refsection}{0}\relax }\@writefile{nav}{\headcommand {\beamer@framepages {66}{66}}}
\@writefile{nav}{\defcounter {refsection}{0}\relax }\@writefile{nav}{\headcommand {\slideentry {0}{0}{66}{67/67}{}{0}}}
\@writefile{nav}{\defcounter {refsection}{0}\relax }\@writefile{nav}{\headcommand {\beamer@framepages {67}{67}}}
\pgfsyspdfmark {pgfid141}{22003203}{12773671}
\pgfsyspdfmark {pgfid140}{1864679}{16503029}
\@writefile{nav}{\defcounter {refsection}{0}\relax }\@writefile{nav}{\headcommand {\slideentry {0}{0}{67}{68/68}{}{0}}}
\@writefile{nav}{\defcounter {refsection}{0}\relax }\@writefile{nav}{\headcommand {\beamer@framepages {68}{68}}}
\pgfsyspdfmark {pgfid143}{18273859}{11748092}
\pgfsyspdfmark {pgfid142}{1864679}{16503029}
\@writefile{nav}{\defcounter {refsection}{0}\relax }\@writefile{nav}{\headcommand {\slideentry {0}{0}{68}{69/69}{}{0}}}
\@writefile{nav}{\defcounter {refsection}{0}\relax }\@writefile{nav}{\headcommand {\beamer@framepages {69}{69}}}
\pgfsyspdfmark {pgfid144}{1864679}{16503029}
\@writefile{nav}{\defcounter {refsection}{0}\relax }\@writefile{nav}{\headcommand {\slideentry {0}{0}{69}{70/70}{}{0}}}
\@writefile{nav}{\defcounter {refsection}{0}\relax }\@writefile{nav}{\headcommand {\beamer@framepages {70}{70}}}
\pgfsyspdfmark {pgfid146}{5155567}{3864595}
\pgfsyspdfmark {pgfid145}{1864679}{16503029}
\@writefile{nav}{\defcounter {refsection}{0}\relax }\@writefile{nav}{\headcommand {\slideentry {0}{0}{70}{71/71}{}{0}}}
\@writefile{nav}{\defcounter {refsection}{0}\relax }\@writefile{nav}{\headcommand {\beamer@framepages {71}{71}}}
\pgfsyspdfmark {pgfid148}{3162093}{12576970}
\pgfsyspdfmark {pgfid149}{3162093}{11860993}
\pgfsyspdfmark {pgfid147}{1864679}{16503029}
\@writefile{nav}{\defcounter {refsection}{0}\relax }\@writefile{nav}{\headcommand {\slideentry {0}{0}{71}{72/72}{}{0}}}
\@writefile{nav}{\defcounter {refsection}{0}\relax }\@writefile{nav}{\headcommand {\beamer@framepages {72}{72}}}
\pgfsyspdfmark {pgfid151}{8083934}{7333330}
\pgfsyspdfmark {pgfid152}{3747908}{801615}
\pgfsyspdfmark {pgfid153}{12884826}{801615}
\pgfsyspdfmark {pgfid150}{1864679}{16503029}
\@writefile{nav}{\defcounter {refsection}{0}\relax }\@writefile{nav}{\headcommand {\slideentry {0}{0}{72}{73/73}{}{0}}}
\@writefile{nav}{\defcounter {refsection}{0}\relax }\@writefile{nav}{\headcommand {\beamer@framepages {73}{73}}}
\pgfsyspdfmark {pgfid155}{22749078}{10908992}
\pgfsyspdfmark {pgfid156}{19952060}{12960151}
\pgfsyspdfmark {pgfid154}{1864679}{16503029}
\@writefile{nav}{\defcounter {refsection}{0}\relax }\@writefile{nav}{\headcommand {\slideentry {0}{0}{73}{74/74}{}{0}}}
\@writefile{nav}{\defcounter {refsection}{0}\relax }\@writefile{nav}{\headcommand {\beamer@framepages {74}{74}}}
\pgfsyspdfmark {pgfid158}{1623380}{9248831}
\pgfsyspdfmark {pgfid157}{1864679}{16503029}
\@writefile{nav}{\defcounter {refsection}{0}\relax }\@writefile{nav}{\headcommand {\slideentry {0}{0}{74}{75/75}{}{0}}}
\@writefile{nav}{\defcounter {refsection}{0}\relax }\@writefile{nav}{\headcommand {\beamer@framepages {75}{75}}}
\@writefile{nav}{\headcommand {\beamer@partpages {1}{75}}}
\@writefile{nav}{\headcommand {\beamer@subsectionpages {1}{75}}}
\@writefile{nav}{\headcommand {\beamer@sectionpages {1}{75}}}
\@writefile{nav}{\headcommand {\beamer@documentpages {75}}}
\@writefile{nav}{\headcommand {\gdef \inserttotalframenumber {63}}}
